<?xml version="1.0" encoding="utf-8"?>
<!DOCTYPE svg PUBLIC "-//W3C//DTD SVG 1.1//EN" "http://www.w3.org/Graphics/SVG/1.1/DTD/svg11.dtd">
<svg version="1.1" xmlns="http://www.w3.org/2000/svg" xmlns:xlink="http://www.w3.org/1999/xlink" x="0px" y="0px" viewBox="0 0 1000 1000" enable-background="new 0 0 1000 1000" xml:space="preserve">
<g><g transform="translate(0.000000,511.000000) scale(0.100000,-0.100000)"><path d="M6367.2,4491.7c-1661.7-282.2-3045.4-526.5-3072.8-539.2c-27.4-14.7-71.6-52.7-94.8-84.2l-44.2-59l-6.3-2872.7l-4.2-2872.7l-139,105.3c-179,134.8-341.2,214.8-570.8,284.3c-248.5,73.7-604.4,77.9-859.3,10.5c-473.9-124.3-874-448.6-1082.5-871.9C381.6-2635.4,343.7-2787,329-3054.5c-25.3-457,124.3-869.8,431.7-1202.6c210.6-229.6,457-379.1,777.2-473.9c235.9-69.5,606.6-80,838.2-19c612.9,155.9,1076.2,615,1232.1,1219.5c40,162.1,42.1,227.5,42.1,2533.6c0,1874.4,6.3,2369.4,27.4,2375.7c12.6,4.2,1230,212.7,2700,463.3c1472.2,248.5,2700,459.1,2733.7,465.4l56.9,12.6V707c0-886.7-4.2-1613.3-10.5-1613.3c-6.3,0-61.1,40-122.1,90.6c-149.6,120.1-370.7,233.8-572.9,292.8c-219,63.2-661.3,67.4-874,10.5c-587.6-155.9-1061.5-636-1200.5-1215.2c-179-754,179-1520.6,878.2-1872.3c240.1-120,423.3-160,743.4-160c334.9,2.1,467.6,31.6,747.7,168.5c404.4,200.1,701.3,551.8,857.2,1010.9l48.4,147.4l6.3,3635.1l4.2,3635.1l-46.3,59c-44.2,56.9-158,117.9-210.6,113.7C9402,5009.8,8028.9,4776,6367.2,4491.7z"/></g></g>
</svg>